<?xml version="1.0" encoding="UTF-8"?>
<session version="1.0">
<refactoring accessors="true" comment="Delete element from project &apos;13-SB_ExceptionHandling&apos;&#x0D;&#x0A;- Original project: &apos;13-SB_ExceptionHandling&apos;&#x0D;&#x0A;- Original element: &apos;13-SB_ExceptionHandling/src/main/java/com.antra.demo.advice&apos;" description="Delete element" element1="/src\/main\/java=/optional=/true=/=/maven.pomderived=/true=/&lt;com.antra.demo.advice" elements="1" flags="589830" id="org.eclipse.jdt.ui.delete" resources="0" stamp="1646808695929" subPackages="false" version="1.0"/>
</session>